^C:\USERS\ALEX\SOURCE\REPOS\PRACT\PRACT\PCH.CPP
C:\USERS\ALEX\SOURCE\REPOS\PRACT\PRACT\DEBUG\PRACT.PCH
C:\USERS\ALEX\SOURCE\REPOS\PRACT\PRACT\DEBUG\VC141.PDB
C:\USERS\ALEX\SOURCE\REPOS\PRACT\PRACT\DEBUG\VC141.IDB
C:\USERS\ALEX\SOURCE\REPOS\PRACT\PRACT\DEBUG\PCH.OBJ
^C:\USERS\ALEX\SOURCE\REPOS\PRACT\PRACT\PRACT.CPP
C:\USERS\ALEX\SOURCE\REPOS\PRACT\PRACT\DEBUG\VC141.PDB
C:\USERS\ALEX\SOURCE\REPOS\PRACT\PRACT\DEBUG\VC141.IDB
C:\USERS\ALEX\SOURCE\REPOS\PRACT\PRACT\DEBUG\PRACT.OBJ
